<?xml version="1.0" encoding="UTF-8"?>
<!DOCTYPE svg PUBLIC "-//W3C//DTD SVG 1.1//EN" "http://www.w3.org/Graphics/SVG/1.1/DTD/svg11.dtd">
<!-- Creator: CorelDRAW X6 -->
<svg xmlns="http://www.w3.org/2000/svg" xml:space="preserve" width="129px" height="154px" version="1.1" style="shape-rendering:geometricPrecision; text-rendering:geometricPrecision; image-rendering:optimizeQuality; fill-rule:evenodd; clip-rule:evenodd"
viewBox="0 0 24 28"
 xmlns:xlink="http://www.w3.org/1999/xlink">
 <defs>
  <style type="text/css">
   <![CDATA[
    .str0 {stroke:#2B2A29;stroke-width:1.08087;stroke-linecap:round;stroke-linejoin:round}
    .str1 {stroke:#038039;stroke-width:1.08087;stroke-linecap:round;stroke-linejoin:round}
    .fil0 {fill:none}
   ]]>
  </style>
 </defs>
 <g id="Слой_x0020_1">
  <metadata id="CorelCorpID_0Corel-Layer"/>
  <g id="_648195024">
   <polyline class="fil0 str0" points="1,22 14,16 14,1 "/>
   <polyline class="fil0 str1" points="14,1 1,7 1,22 "/>
   <polyline class="fil0 str0" points="5,25 19,18 19,3 "/>
   <polyline class="fil0 str1" points="19,3 5,10 5,25 "/>
   <polyline class="fil0 str0" points="10,28 23,21 23,6 "/>
   <polyline class="fil0 str1" points="23,6 10,13 10,28 "/>
  </g>
 </g>
</svg>
