<?xml version="1.0" encoding="UTF-8"?>
<!DOCTYPE svg PUBLIC "-//W3C//DTD SVG 1.1//EN" "http://www.w3.org/Graphics/SVG/1.1/DTD/svg11.dtd">
<!-- Creator: CorelDRAW X6 -->
<svg xmlns="http://www.w3.org/2000/svg" xml:space="preserve" width="218px" height="218px" version="1.1" style="shape-rendering:geometricPrecision; text-rendering:geometricPrecision; image-rendering:optimizeQuality; fill-rule:evenodd; clip-rule:evenodd"
viewBox="0 0 41 41"
 xmlns:xlink="http://www.w3.org/1999/xlink">
 <defs>
  <font id="FontID1" horiz-adv-x="591" font-variant="normal" style="fill-rule:nonzero" font-weight="700">
	<font-face 
		font-family="Arial Narrow">
	</font-face>
   <missing-glyph><path d="M0 0z"/></missing-glyph>
   <glyph unicode=" " horiz-adv-x="227"></glyph>
  </font>
  <font id="FontID0" horiz-adv-x="611" font-variant="normal" style="fill-rule:nonzero" font-style="normal" font-weight="400">
	<font-face 
		font-family="DIN Pro Regular">
	</font-face>
   <missing-glyph><path d="M0 0z"/></missing-glyph>
   <glyph unicode="И" horiz-adv-x="715"><path d="M612.988 0l0 711.996 -71.977 0 -361.996 -580.006 0 580.006 -76.0077 0 0 -711.996 72.009 0 361.996 580.998 0 -580.998 75.9757 0z"/></glyph>
   <glyph unicode="Е" horiz-adv-x="600"><path d="M545.01 0l0 68.0102 -365.995 0 0 257.006 311.996 0 0 67.9782 -311.996 0 0 250.992 365.995 0 0 68.0102 -442.003 0 0 -711.996 442.003 0z"/></glyph>
   <glyph unicode="Р" horiz-adv-x="630"><path d="M588.004 503.007c0,126.999 -91.0109,208.989 -219.994,208.989l-265.003 0 0 -711.996 76.0077 0 0 292.994 188.996 0c128.983,0 219.994,83.0134 219.994,210.013zm-76.0077 0c0,-94.0179 -61.0045,-142.003 -150,-142.003l-182.981 0 0 282.981 182.981 0c88.9955,0 150,-46.993 150,-140.979z"/></glyph>
   <glyph unicode="К" horiz-adv-x="611"><path d="M183.013 0l0 711.996 -76.0077 0 0 -711.996 76.0077 0zm428.983 0l-338.996 373.992 311.996 338.004 -96.0013 0 -304.99 -339.987 326.999 -372.009 100.992 0z"/></glyph>
   <glyph unicode="Б" horiz-adv-x="656"><path d="M591.011 208.989c0,126.008 -86.0205,210.013 -219.002,210.013l-192.994 0 0 224.984 367.978 0 0 68.0102 -443.986 0 0 -711.996 269.002 0c132.981,0 219.002,84.0051 219.002,208.989zm-76.0077 0c0,-88.9955 -54.9904,-140.979 -150,-140.979l-185.988 0 0 282.981 185.988 0c95.0096,0 150,-51.9834 150,-142.003z"/></glyph>
   <glyph unicode="Г" horiz-adv-x="569"><path d="M538.004 643.986l0 68.0102 -427.991 0 0 -711.996 75.9757 0 0 643.986 352.015 0z"/></glyph>
  </font>
  <style type="text/css">
   <![CDATA[
    @font-face { font-family:"Arial Narrow";src:url("#FontID1") format(svg)}
    @font-face { font-family:"DIN Pro Regular";src:url("#FontID0") format(svg)}
    .str0 {stroke:#FEFEFE;stroke-width:0.178738}
    .fil0 {fill:#51AEE2}
    .fil1 {fill:#FEFEFE}
    .fnt0 {font-weight:normal;font-size:6.99294px;font-family:'DIN Pro Regular'}
    .fnt1 {font-weight:normal;font-size:6.99294px;font-family:'DIN Pro Regular'}
    .fnt2 {font-weight:bold;font-size:6.99294px;font-family:'Arial Narrow'}
   ]]>
  </style>
 </defs>
 <g id="Слой_x0020_1">
  <metadata id="CorelCorpID_0Corel-Layer"/>
  <g id="_798038608">
   <rect class="fil0" width="41.2209" height="41.2209"/>
   <rect class="fil0 str0" x="3" y="3" width="35.2496" height="35.2496"/>
   <text x="10" y="18"  class="fil1 fnt0">БЕРЕГ</text>
   <text x="12" y="27"  class="fil1 fnt1">РЕКИ</text>
   <text x="30" y="27"  class="fil1 fnt2"> </text>
  </g>
 </g>
</svg>
