{
  "Прогулочная аллея": {
    "color": "green",
    "m2": "",
    "m3": "",
    "m4": "",
    "m5": "http://www.poselok-bobry.ru/genplan/img/obj5.jpg",
    "points": [
      787.149993896,
      429.866668701,
      688.149993896,
      315.866668701,
      651.149993896,
      273.866668701,
      648.149993896,
      271.866668701,
      654.149993896,
      221.866668701,
      590.149993896,
      217.866668701,
      573.149993896,
      256.866668701,
      571.149993896,
      264.866668701,
      635.149993896,
      279.066665649,
      773.149993896,
      436.066665649
    ],
    "street": "Прогулочная аллея",
    "id": "p1"
  },
  "Детская площадка": {
    "color": "green",
    "m2": "",
    "m3": "",
    "m4": "",
    "m5": "http://www.poselok-bobry.ru/genplan/img/obj4.jpg",
    "points": [
      884.833328247,
      448.083328247,
      872.833328247,
      473.083328247,
      871.833328247,
      487.083328247,
      868.833328247,
      506.083328247,
      847.833328247,
      515.083328247,
      824.833328247,
      534.083328247,
      800.833328247,
      532.083328247,
      777.833328247,
      516.083328247,
      770.833328247,
      496.083328247,
      771.833328247,
      469.083328247,
      779.833328247,
      451.083328247,
      792.833328247,
      435.083328247,
      887.833328247,
      440.083328247
    ],
    "street": "Детская площадка",
    "id": "p2"
  },
  "Береговая линия": {
    "color": "green",
    "m2": "",
    "m3": "",
    "m4": "",
    "m5": "http://www.poselok-bobry.ru/genplan/img/obj3.jpg",
    "points": [
      989.416671753,
      465,
      973.416671753,
      454,
      896.416671753,
      448,
      883.416671753,
      478,
      878.416671753,
      495,
      871.416671753,
      520,
      863.416671753,
      536,
      861.416671753,
      550,
      872.416671753,
      563,
      893.416671753,
      561
    ],
    "street": "Береговая линия",
    "id": "p3"
  },
  "Причал": {
    "color": "green",
    "m2": "",
    "m3": "",
    "m4": "",
    "m5": "http://www.poselok-bobry.ru/genplan/img/obj2.jpg",
    "points": [
      910.833312988,
      627.016662598,
      981.833312988,
      621.016662598,
      998.833312988,
      688.016662598,
      923.833312988,
      698.016662598
    ],
    "street": "Причал",
    "id": "p4"
  },
  "Въездная группа": {
    "color": "green",
    "m2": "",
    "m3": "",
    "m4": "",
    "m5": "http://www.poselok-bobry.ru/genplan/img/obj1.jpg",
    "points": [
      404,
      685.5,
      417,
      655.5,
      445,
      662.5,
      456,
      631.5,
      540,
      651.5,
      527,
      688,
      523,
      692,
      411,
      690
    ],
    "street": "Въездная группа",
    "id": "p5"
  },
  "ул. Кольцевая, 1": {
    "color": "red",
    "m2": "19,27",
    "m3": "1 очередь, Тип: Комфорт",
    "m4": "Продан",
    "m5": "http://www.poselok-bobry.ru/genplan/img/psheme_house_type1.png",
    "points": [
      200,
      652,
      222,
      608,
      282,
      623,
      285,
      632,
      271,
      666
    ],
    "street": "ул. Кольцевая, 1",
    "id": "p6"
  },
  "ул. Кольцевая, 2": {
    "color": "red",
    "m2": "22,33",
    "m3": "1 очередь, Тип: Комфорт",
    "m4": "Продан",
    "m5": "http://www.poselok-bobry.ru/genplan/img/psheme_house_type1.png",
    "points": [
      278,
      668,
      293,
      636,
      304,
      632,
      354,
      645,
      340,
      676
    ],
    "street": "ул. Кольцевая, 2",
    "id": "p7"
  },
  "ул. Кольцевая, 3": {
    "color": "red",
    "m2": "20,36",
    "m3": "1 очередь, Тип: Комфорт",
    "m4": "Продан",
    "m5": "http://www.poselok-bobry.ru/genplan/img/psheme_house_type1.png",
    "points": [
      223,
      604,
      239,
      571,
      298,
      586,
      284,
      619
    ],
    "street": "ул. Кольцевая, 3",
    "id": "p8"
  },
  "ул. Кольцевая, 4": {
    "color": "red",
    "m2": "18,03",
    "m3": "1 очередь, Тип: Комфорт",
    "m4": "Продан",
    "m5": "http://www.poselok-bobry.ru/genplan/img/psheme_house_type1.png",
    "points": [
      310,
      624,
      321,
      596,
      378,
      608,
      368,
      638
    ],
    "street": "ул. Кольцевая, 4",
    "id": "p9"
  },
  "ул. Кольцевая, 5": {
    "color": "red",
    "m2": "18,03",
    "m3": "1 очередь, Тип: Комфорт",
    "m4": "Продан",
    "m5": "http://www.poselok-bobry.ru/genplan/img/psheme_house_type1.png",
    "points": [
      241,
      568,
      258,
      535,
      318,
      548,
      300,
      584
    ],
    "street": "ул. Кольцевая, 5",
    "id": "p10"
  },
  "ул. Кольцевая, 6": {
    "color": "red",
    "m2": "15,92",
    "m3": "1 очередь, Тип: Комфорт",
    "m4": "Продан",
    "m5": "http://www.poselok-bobry.ru/genplan/img/psheme_house_type1.png",
    "points": [
      322,
      593,
      332,
      567,
      346,
      559,
      393,
      571,
      379,
      604
    ],
    "street": "ул. Кольцевая, 6",
    "id": "p11"
  },
  "ул. Кольцевая, 7": {
    "color": "red",
    "m2": "17,52",
    "m3": "1 очередь, Тип: Комфорт",
    "m4": "Продан",
    "m5": "http://www.poselok-bobry.ru/genplan/img/psheme_house_type1.png",
    "points": [
      260,
      531,
      274,
      501,
      333,
      513,
      319,
      544
    ],
    "street": "ул. Кольцевая, 7",
    "id": "p12"
  },
  "ул. Кольцевая, 8": {
    "color": "red",
    "m2": "19,08",
    "m3": "1 очередь, Тип: Комфорт",
    "m4": "Продан",
    "m5": "http://www.poselok-bobry.ru/genplan/img/psheme_house_type1.png",
    "points": [
      355,
      542,
      350,
      530,
      361,
      508,
      415,
      521,
      403,
      552
    ],
    "street": "ул. Кольцевая, 8",
    "id": "p13"
  },
  "ул. Кольцевая, 9": {
    "color": "red",
    "m2": "17,62",
    "m3": "1 очередь, Тип: Комфорт",
    "m4": "Продан",
    "m5": "http://www.poselok-bobry.ru/genplan/img/psheme_house_type1.png",
    "points": [
      276,
      496,
      292,
      465,
      349,
      478,
      334,
      510
    ],
    "street": "ул. Кольцевая, 9",
    "id": "p14"
  },
  "ул. Кольцевая, 10": {
    "color": "red",
    "m2": "17,91",
    "m3": "1 очередь, Тип: Комфорт",
    "m4": "Продан",
    "m5": "http://www.poselok-bobry.ru/genplan/img/psheme_house_type1.png",
    "points": [
      363,
      504,
      378,
      472,
      433,
      484,
      419,
      517
    ],
    "street": "ул. Кольцевая, 10",
    "id": "p15"
  },
  "ул. Кольцевая, 11": {
    "color": "red",
    "m2": "17,47",
    "m3": "1 очередь, Тип: Комфорт",
    "m4": "Продан",
    "m5": "http://www.poselok-bobry.ru/genplan/img/psheme_house_type1.png",
    "points": [
      294,
      462,
      309,
      432,
      365,
      445,
      351,
      476
    ],
    "street": "ул. Кольцевая, 11",
    "id": "p16"
  },
  "ул. Кольцевая, 12": {
    "color": "red",
    "m2": "17,91",
    "m3": "1 очередь, Тип: Комфорт",
    "m4": "Продан",
    "m5": "http://www.poselok-bobry.ru/genplan/img/psheme_house_type1.png",
    "points": [
      379,
      469,
      393,
      439,
      447,
      451,
      434,
      481
    ],
    "street": "ул. Кольцевая, 12",
    "id": "p17"
  },
  "ул. Кольцевая, 13": {
    "color": "red",
    "m2": "17,77",
    "m3": "1 очередь, Тип: Комфорт",
    "m4": "Продан",
    "m5": "http://www.poselok-bobry.ru/genplan/img/psheme_house_type1.png",
    "points": [
      310,
      430,
      322,
      402,
      380,
      414,
      367,
      442
    ],
    "street": "ул. Кольцевая, 13",
    "id": "p18"
  },
  "ул. Кольцевая, 14": {
    "color": "red",
    "m2": "17,85",
    "m3": "2 очередь, Тип: Комфорт",
    "m4": "Продан",
    "m5": "http://www.poselok-bobry.ru/genplan/img/psheme_house_type1.png",
    "points": [
      396,
      434,
      409,
      402,
      462,
      413,
      450,
      445
    ],
    "street": "ул. Кольцевая, 14",
    "id": "p19"
  },
  "ул. Кольцевая, 15": {
    "color": "red",
    "m2": "17,47",
    "m3": "2 очередь, Тип: Комфорт",
    "m4": "Продан",
    "m5": "http://www.poselok-bobry.ru/genplan/img/psheme_house_type1.png",
    "points": [
      327,
      395,
      340,
      370,
      394,
      380,
      384,
      407
    ],
    "street": "ул. Кольцевая, 15",
    "id": "p20"
  },
  "ул. Кольцевая, 16": {
    "color": "red",
    "m2": "17,89",
    "m3": "2 очередь, Тип: Комфорт",
    "m4": "Продан",
    "m5": "http://www.poselok-bobry.ru/genplan/img/psheme_house_type1.png",
    "points": [
      411,
      399,
      424,
      370,
      476,
      382,
      464,
      410
    ],
    "street": "ул. Кольцевая, 16",
    "id": "p21"
  },
  "ул. Кольцевая, 17": {
    "color": "red",
    "m2": "17,59",
    "m3": "2 очередь, Тип: Комфорт",
    "m4": "Продан",
    "m5": "http://www.poselok-bobry.ru/genplan/img/psheme_house_type2.png",
    "points": [
      341,
      367,
      352,
      343,
      408,
      354,
      398,
      379
    ],
    "street": "ул. Кольцевая, 17",
    "id": "p22"
  },
  "ул. Кольцевая, 18": {
    "color": "red",
    "m2": "17,76",
    "m3": "2 очередь, Тип: Комфорт",
    "m4": "Продан",
    "m5": "http://www.poselok-bobry.ru/genplan/img/psheme_house_type3.png",
    "points": [
      425,
      367,
      437,
      338,
      491,
      351,
      478,
      378
    ],
    "street": "ул. Кольцевая, 18",
    "id": "p23"
  },
  "ул. Кольцевая, 19": {
    "color": "red",
    "m2": "17,60",
    "m3": "2 очередь, Тип: Комфорт",
    "m4": "Продан",
    "m5": "http://www.poselok-bobry.ru/genplan/img/psheme_house_type4.png",
    "points": [
      354,
      339,
      371,
      312,
      423,
      320,
      410,
      350
    ],
    "street": "ул. Кольцевая, 19",
    "id": "p24"
  },
  "ул. Кольцевая, 20": {
    "color": "red",
    "m2": "17,75",
    "m3": "2 очередь, Тип: Комфорт",
    "m4": "Продан",
    "m5": "http://www.poselok-bobry.ru/genplan/img/psheme_house_type5.png",
    "points": [
      439,
      335,
      452,
      306,
      504,
      318,
      493,
      347
    ],
    "street": "ул. Кольцевая, 20",
    "id": "p25"
  },
  "ул. Кольцевая, 21": {
    "color": "red",
    "m2": "17,55",
    "m3": "2 очередь, Тип: Комфорт",
    "m4": "Продан",
    "m5": "http://www.poselok-bobry.ru/genplan/img/psheme_house_type6.png",
    "points": [
      373,
      307,
      383,
      283,
      437,
      293,
      424,
      320
    ],
    "street": "ул. Кольцевая, 21",
    "id": "p26"
  },
  "ул. Кольцевая, 22": {
    "color": "red",
    "m2": "17,88",
    "m3": "2 очередь, Тип: Комфорт",
    "m4": "Продан",
    "m5": "http://www.poselok-bobry.ru/genplan/img/psheme_house_type7.png",
    "points": [
      453,
      303,
      465,
      278,
      516,
      288,
      504,
      316
    ],
    "street": "ул. Кольцевая, 22",
    "id": "p27"
  },
  "ул. Кольцевая, 23": {
    "color": "red",
    "m2": "17,52",
    "m3": "2 очередь, Тип: Комфорт",
    "m4": "Продан",
    "m5": "http://www.poselok-bobry.ru/genplan/img/psheme_house_type1.png",
    "points": [
      386,
      278,
      397,
      256,
      450,
      265,
      438,
      290
    ],
    "street": "ул. Кольцевая, 23",
    "id": "p28"
  },
  "ул. Кольцевая, 24": {
    "color": "red",
    "m2": "16,84",
    "m3": "2 очередь, Тип: Комфорт",
    "m4": "Продан",
    "m5": "http://www.poselok-bobry.ru/genplan/img/psheme_house_type2.png",
    "points": [
      466,
      275,
      475,
      255,
      489,
      252,
      529,
      261,
      519,
      286
    ],
    "street": "ул. Кольцевая, 24",
    "id": "p29"
  },
  "ул. Кольцевая, 25": {
    "color": "red",
    "m2": "17,48",
    "m3": "2 очередь, Тип: Комфорт",
    "m4": "Продан",
    "m5": "http://www.poselok-bobry.ru/genplan/img/psheme_house_type3.png",
    "points": [
      398,
      250,
      409,
      228,
      462,
      238,
      451,
      261
    ],
    "street": "ул. Кольцевая, 25",
    "id": "p30"
  },
  "ул. Кольцевая, 26": {
    "color": "yellow",
    "m2": "16,53",
    "m3": "1 очередь, Тип: Комфорт",
    "m4": " забронирован",
    "m5": "http://www.poselok-bobry.ru/genplan/img/psheme_house_type4.png",
    "points": [
      495,
      237,
      490,
      226,
      499,
      204,
      547,
      216,
      537,
      246
    ],
    "street": "ул. Кольцевая, 26",
    "id": "p31",
    "class": "hobjc37",
    "show1": "0"
  },
  "ул. Кольцевая, 27": {
    "color": "yellow",
    "m2": "17,44",
    "m3": "3 очередь, Тип: Комфорт",
    "m4": " забронирован",
    "m5": "http://www.poselok-bobry.ru/genplan/img/psheme_house_type5.png",
    "points": [
      414,
      222,
      424,
      202,
      475,
      211,
      466,
      232
    ],
    "street": "ул. Кольцевая, 27",
    "id": "p32",
    "class": "hobjc40",
    "show1": "0"
  },
  "ул. Кольцевая, 28": {
    "color": "yellow",
    "m2": "17,67",
    "m3": "3 очередь, Тип: Комфорт",
    "m4": " забронирован",
    "m5": "http://www.poselok-bobry.ru/genplan/img/psheme_house_type6.png",
    "points": [
      501,
      202,
      512,
      177,
      559,
      188,
      549,
      213
    ],
    "street": "ул. Кольцевая, 28",
    "id": "p33",
    "class": "hobjc36",
    "show1": "0"
  },
  "ул. Кольцевая, 29": {
    "color": "yellow",
    "m2": "17,41",
    "m3": "3 очередь, Тип: Комфорт",
    "m4": " забронирован",
    "m5": "http://www.poselok-bobry.ru/genplan/img/psheme_house_type7.png",
    "points": [
      425,
      197,
      437,
      174,
      487,
      183,
      476,
      207
    ],
    "street": "ул. Кольцевая, 29",
    "id": "p34",
    "class": "hobjc41",
    "show1": "0"
  },
  "ул. Кольцевая, 30": {
    "color": "yellow",
    "m2": "18,45",
    "m3": "3 очередь, Тип: Комфорт",
    "m4": "забронирован",
    "m5": "http://www.poselok-bobry.ru/genplan/img/psheme_house_type1.png",
    "points": [
      514,
      174,
      527,
      147,
      566,
      149,
      563,
      186
    ],
    "street": "ул. Кольцевая, 30",
    "id": "p35",
    "class": "hobjc35",
    "show1": "0"
  },
  "ул. Кольцевая, 31": {
    "color": "yellow",
    "m2": "25,58",
    "m3": "3 очередь, Тип: Комфорт",
    "m4": "забранирован",
    "m5": "http://www.poselok-bobry.ru/genplan/img/psheme_house_type2.png",
    "points": [
      439,
      171,
      459,
      136,
      507,
      143,
      490,
      180
    ],
    "street": "ул. Кольцевая, 31",
    "id": "p36",
    "class": "hobjc39",
    "show1": "0"
  },
  "ул. Кольцевая, 31/1": {
    "color": "yellow",
    "m2": "30,68",
    "m3": "1 очередь, Тип: Комфорт",
    "m4": " забронирован",
    "m5": "http://www.poselok-bobry.ru/genplan/img/psheme_house_type3.png",
    "points": [
      461,
      128,
      479,
      91,
      518,
      94,
      515,
      133,
      510,
      139
    ],
    "street": "ул. Кольцевая, 31/1",
    "id": "p37",
    "class": "hobjc1",
    "show1": "0"
  },
  "ул. Кольцевая, 33": {
    "color": "yellow",
    "m2": "15,29",
    "m3": "3 очередь, Тип: Комфорт",
    "m4": " забронирован",
    "m5": "http://www.poselok-bobry.ru/genplan/img/psheme_house_type4.png",
    "points": [
      518,
      131,
      523,
      95,
      555,
      98,
      550,
      132
    ],
    "street": "ул. Кольцевая, 33",
    "id": "p38",
    "class": "hobjc2",
    "show1": "0"
  },
  "ул. Кольцевая, 35": {
    "color": "yellow",
    "m2": "15,29",
    "m3": "3 очередь, Тип: Комфорт",
    "m4": " забронирован",
    "m5": "http://www.poselok-bobry.ru/genplan/img/psheme_house_type5.png",
    "points": [
      553,
      132,
      559,
      98,
      589,
      100,
      585,
      135
    ],
    "street": "ул. Кольцевая, 35",
    "id": "p39",
    "class": "hobjc3",
    "show1": "0"
  },
  "ул. Кольцевая, 37": {
    "color": "yellow",
    "m2": "15,35",
    "m3": "3 очередь, Тип: Комфорт",
    "m4": "забронирован",
    "m5": "http://www.poselok-bobry.ru/genplan/img/psheme_house_type1.png",
    "points": [
      589,
      135,
      594,
      101,
      626,
      102,
      621,
      137
    ],
    "street": "ул. Кольцевая, 37",
    "id": "p40",
    "class": "hobjc4",
    "show1": "0"
  },
  "ул. Кольцевая, 32": {
    "color": "yellow",
    "m2": "15,75",
    "m3": "3 очередь, Тип: Комфорт",
    "m4": " забронирован",
    "m5": "http://www.poselok-bobry.ru/genplan/img/psheme_house_type3.png",
    "points": [
      566,
      186,
      569,
      150,
      604,
      151,
      602,
      189
    ],
    "street": "ул. Кольцевая, 32",
    "id": "p41",
    "class": "hobjc34",
    "show1": "0"
  },
  "ул. Кольцевая, 34": {
    "color": "yellow",
    "m2": "15,62",
    "m3": "3 очередь, Тип: Комфорт",
    "m4": " забронирован",
    "m5": "http://www.poselok-bobry.ru/genplan/img/psheme_house_type2.png",
    "points": [
      605,
      189,
      608,
      153,
      638,
      154,
      644,
      160,
      642,
      191
    ],
    "street": "ул. Кольцевая, 34",
    "id": "p42",
    "class": "hobjc33",
    "show1": "0"
  },
  "ул. Кольцевая, 39": {
    "color": "yellow",
    "m2": "15,89",
    "m3": "3 очередь, Тип: Комфорт",
    "m4": " забронирован",
    "m5": "http://www.poselok-bobry.ru/genplan/img/psheme_house_type4.png",
    "points": [
      623,
      137,
      629,
      102,
      659,
      104,
      656,
      140
    ],
    "street": "ул. Кольцевая, 39",
    "id": "p43",
    "class": "hobjc5",
    "show1": "0"
  },
  "ул. Кольцевая, 36": {
    "color": "green",
    "m2": "15,89",
    "m3": "3 очередь, Тип: Комфорт",
    "m4": " свободен",
    "m5": "http://www.poselok-bobry.ru/genplan/img/psheme_house_type5.png",
    "points": [
      659,
      193,
      663,
      161,
      673,
      157,
      692,
      158,
      688,
      194
    ],
    "street": "ул. Кольцевая, 36",
    "id": "p44",
    "class": "hobjc30",
    "show1": "0"
  },
  "ул. Кольцевая, 41": {
    "color": "green",
    "m2": "14,38",
    "m3": "3 очередь, Тип: Комфорт",
    "m4": " свободен",
    "m5": "http://www.poselok-bobry.ru/genplan/img/psheme_house_type6.png",
    "points": [
      665,
      142,
      667,
      105,
      690,
      105,
      686,
      142
    ],
    "street": "ул. Кольцевая, 41",
    "id": "p45",
    "class": "hobjc6",
    "show1": "0"
  },
  "ул. Кольцевая, 36/1": {
    "color": "green",
    "m2": "17,00",
    "m3": "3 очередь, Тип: Комфорт",
    "m4": " свободен",
    "m5": "http://www.poselok-bobry.ru/genplan/img/psheme_house_type7.png",
    "points": [
      691,
      195,
      696,
      158,
      725,
      160,
      721,
      196
    ],
    "street": "ул. Кольцевая, 36/1",
    "id": "p46"
  },
  "ул. Кольцевая, 43": {
    "color": "green",
    "m2": "14,40",
    "m3": "3 очередь, Тип: Комфорт",
    "m4": " свободен",
    "m5": "http://www.poselok-bobry.ru/genplan/img/psheme_house_type6.png",
    "points": [
      689,
      143,
      694,
      106,
      716,
      108,
      710,
      146
    ],
    "street": "ул. Кольцевая, 43",
    "id": "p47",
    "class": "hobjc7",
    "show1": "0"
  },
  "ул. Кольцевая, 38": {
    "color": "green",
    "m2": "17",
    "m3": "3 очередь, Тип: Комфорт",
    "m4": " свободен",
    "m5": "http://www.poselok-bobry.ru/genplan/img/psheme_house_type6.png",
    "points": [
      724,
      197,
      728,
      161,
      758,
      162,
      755,
      199
    ],
    "street": "ул. Кольцевая, 38",
    "id": "p48",
    "class": "hobjc26",
    "show1": "0"
  },
  "ул. Кольцевая, 45": {
    "color": "green",
    "m2": "14,42",
    "m3": "3 очередь, Тип: Комфорт",
    "m4": " свободен",
    "m5": "http://www.poselok-bobry.ru/genplan/img/psheme_house_type1.png",
    "points": [
      714,
      146,
      719,
      108,
      742,
      110,
      738,
      147
    ],
    "street": "ул. Кольцевая, 45",
    "id": "p49",
    "class": "hobjc8",
    "show1": "0"
  },
  "ул. Кольцевая, 38/1": {
    "color": "green",
    "m2": "17",
    "m3": "3 очередь, Тип: Комфорт",
    "m4": " свободен",
    "m5": "http://www.poselok-bobry.ru/genplan/img/psheme_house_type2.png",
    "points": [
      758,
      199,
      760,
      162,
      789,
      164,
      788,
      201
    ],
    "street": "ул. Кольцевая, 38/1",
    "id": "p50"
  },
  "ул. Кольцевая, 45/1": {
    "color": "green",
    "m2": "14,42",
    "m3": "3 очередь, Тип: Комфорт",
    "m4": " свободен",
    "m5": "http://www.poselok-bobry.ru/genplan/img/psheme_house_type1.png",
    "points": [
      741,
      148,
      745,
      111,
      769,
      112,
      766,
      149
    ],
    "street": "ул. Кольцевая, 45/1",
    "id": "p51",
    "show1": "0"
  },
  "ул. Кольцевая, 40": {
    "color": "green",
    "m2": "16,99",
    "m3": "3 очередь, Тип: Комфорт",
    "m4": "готовый дом на продажу",
    "m5": "http://www.poselok-bobry.ru/genplan/img/psheme_house_type1.png",
    "points": [
      791,
      201,
      792,
      164,
      819,
      165,
      820,
      202
    ],
    "street": "ул. Кольцевая, 40",
    "id": "p52",
    "class": "hobjc21",
    "show1": "0"
  },
  "ул. Кольцевая, 47": {
    "color": "green",
    "m2": "14.68",
    "m3": "3 очередь, Тип: Комфорт",
    "m4": "готовый дом на продажу (Кольцевая 47А)",
    "m5": "http://www.poselok-bobry.ru/genplan/img/psheme_house_type3.png",
    "points": [
      769,
      150,
      772,
      112,
      793,
      113,
      790,
      151
    ],
    "street": "ул. Кольцевая, 47",
    "id": "p53",
    "class": "hobjc9",
    "show1": "0"
  },
  "ул. Кольцевая, 42": {
    "color": "green",
    "c": "hobjc20",
    "v": "show",
    "m2": "16,99",
    "m3": "3 очередь, Тип: Комфорт",
    "m4": "готовый дом на продажу",
    "m5": "http://www.poselok-bobry.ru/genplan/img/psheme_house_type2.png",
    "points": [
      823,
      204,
      824,
      168,
      851,
      170,
      853,
      205
    ],
    "street": "ул. Кольцевая, 42",
    "id": "p54",
    "class": "hobjc20",
    "show1": "1"
  },
  "ул. Кольцевая, 47/1": {
    "color": "red",
    "m2": "14,42",
    "m3": "3 очередь, Тип: Комфорт",
    "m4": "продан",
    "m5": "http://www.poselok-bobry.ru/genplan/img/psheme_house_type4.png",
    "points": [
      793,
      151,
      797,
      113,
      818,
      114,
      816,
      153
    ],
    "street": "ул. Кольцевая, 47/1",
    "id": "p55",
    "class": "hobjc10",
    "show1": "0"
  },
  "ул. Кольцевая, 44": {
    "color": "red",
    "m2": "16,97",
    "m3": "3 очередь, Тип: Комфорт",
    "m4": "Продан",
    "m5": "http://www.poselok-bobry.ru/genplan/img/psheme_house_type5.png",
    "points": [
      857,
      206,
      856,
      170,
      883,
      172,
      886,
      207
    ],
    "street": "ул. Кольцевая, 44",
    "id": "p56"
  },
  "ул. Кольцевая, 49": {
    "color": "green",
    "c": "hobjc12",
    "v": "show",
    "m2": "14,42",
    "m3": "3 очередь, Тип: Комфорт",
    "m4": "готовый дом на продажу (Кольцевая 49А)",
    "m5": "http://www.poselok-bobry.ru/genplan/img/psheme_house_type7.png",
    "points": [
      818,
      154,
      818,
      114,
      842,
      116,
      841,
      156
    ],
    "street": "ул. Кольцевая, 49",
    "id": "p57",
    "class": "hobjc11",
    "show1": "1"
  },
  "ул. Кольцевая, 46": {
    "color": "red",
    "m2": "14,02",
    "m3": "3 очередь, Тип: Комфорт",
    "m4": "Продан",
    "m5": "http://www.poselok-bobry.ru/genplan/img/psheme_house_type1.png",
    "points": [
      908,
      209,
      904,
      174,
      881,
      171,
      884,
      208
    ],
    "street": "ул. Кольцевая, 46",
    "id": "p58"
  },
  "ул. Кольцевая, 49/1": {
    "color": "red",
    "c": "hobjc13",
    "v": "show",
    "m2": "14,42",
    "m3": "3 очередь, Тип: Комфорт",
    "m4": "Продан",
    "m5": "http://www.poselok-bobry.ru/genplan/img/psheme_house_type10.png",
    "points": [
      844,
      155,
      845,
      117,
      866,
      118,
      868,
      157
    ],
    "street": "ул. Кольцевая, 49/1",
    "id": "p59",
    "class": "hobjc12",
    "show1": "1"
  },
  "ул. Кольцевая, 51": {
    "color": "red",
    "c": "hobjc14",
    "v": "show",
    "m2": "14,42",
    "m3": "3 очередь, Тип: Комфорт",
    "m4": "Продан",
    "m5": "http://www.poselok-bobry.ru/genplan/img/psheme_house_type1.png",
    "points": [
      870,
      158,
      870,
      117,
      892,
      118,
      892,
      159
    ],
    "street": "ул. Кольцевая, 51",
    "id": "p60",
    "class": "hobjc13",
    "show1": "1"
  },
  "ул. Кольцевая, 53": {
    "color": "red",
    "m2": "21,65",
    "m3": "3 очередь, Тип: Люкс",
    "m4": "продан",
    "m5": "http://www.poselok-bobry.ru/genplan/img/psheme_house_type2.png",
    "points": [
      896,
      158,
      894,
      119,
      922,
      120,
      923,
      161
    ],
    "street": "ул. Кольцевая, 53",
    "id": "p61",
    "class": "hobjc15",
    "show1": "1"
  },
  "ул. Кольцевая, 55": {
    "color": "red",
    "c": "hobjc16",
    "v": "show",
    "m2": "27,28",
    "m3": "3 очередь, Тип: Премиум",
    "m4": "Продан",
    "m5": "http://www.poselok-bobry.ru/genplan/img/psheme_house_type12.jpg",
    "points": [
      928,
      162,
      925,
      121,
      959,
      122,
      981,
      165,
      940,
      168
    ],
    "street": "ул. Кольцевая, 55",
    "id": "p62",
    "class": "hobjc16",
    "show1": "1"
  },
  "ул. Кольцевая, 57": {
    "color": "red",
    "m2": "13,73",
    "m3": "3 очередь, Тип: Премиум",
    "m4": "Продан",
    "m5": "http://www.poselok-bobry.ru/genplan/img/psheme_house_type4.png",
    "points": [
      952,
      192,
      943,
      172,
      984,
      168,
      994,
      190
    ],
    "street": "ул. Кольцевая, 57",
    "id": "p63"
  },
  "ул. Кольцевая, 59": {
    "color": "red",
    "m2": "13,37",
    "m3": "3 очередь, Тип: Премиум",
    "m4": "Продан",
    "m5": "http://www.poselok-bobry.ru/genplan/img/psheme_house_type5.png",
    "points": [
      963,
      216,
      954,
      195,
      995,
      193,
      1007,
      213
    ],
    "street": "ул. Кольцевая, 59",
    "id": "p64"
  },
  "ул. Кольцевая, 48": {
    "color": "red",
    "m2": "16,94",
    "m3": "3 очередь, Тип: Люкс",
    "m4": "Продан",
    "m5": "http://www.poselok-bobry.ru/genplan/img/psheme_house_type6.png",
    "points": [
      912,
      210,
      906,
      172,
      925,
      176,
      941,
      213
    ],
    "street": "ул. Кольцевая, 48",
    "id": "p65"
  },
  "ул. Кольцевая, 61": {
    "color": "red",
    "m2": "13,63",
    "m3": "3 очередь, Тип: Премиум",
    "m4": "Продан",
    "m5": "http://www.poselok-bobry.ru/genplan/img/psheme_house_type7.png",
    "points": [
      977,
      244,
      966,
      221,
      1008,
      217,
      1021,
      241
    ],
    "street": "ул. Кольцевая, 61",
    "id": "p66"
  },
  "ул. Кольцевая, 63": {
    "color": "red",
    "m2": "13,17",
    "m3": "3 очередь, Тип: Премиум",
    "m4": "Продан",
    "m5": "http://www.poselok-bobry.ru/genplan/img/psheme_house_type5.png",
    "points": [
      987,
      269,
      977,
      247,
      1022,
      244,
      1034,
      267
    ],
    "street": "ул. Кольцевая, 63",
    "id": "p67"
  },
  "ул. Главная Аллея, 36": {
    "color": "red",
    "m2": "19,10",
    "m3": "3 очередь, Тип: Люкс",
    "m4": "Продан",
    "m5": "http://www.poselok-bobry.ru/genplan/img/psheme_house_type1.png",
    "points": [
      938,
      320,
      935,
      277,
      967,
      278,
      974,
      323
    ],
    "street": "ул. Главная Аллея, 36",
    "id": "p68"
  },
  "ул. Кольцевая, 65": {
    "color": "red",
    "m2": "14,96",
    "m3": "3 очередь, Тип: Премиум",
    "m4": "Продан",
    "m5": "http://www.poselok-bobry.ru/genplan/img/psheme_house_type1.png",
    "points": [
      993,
      300,
      989,
      277,
      1037,
      275,
      1043,
      299
    ],
    "street": "ул. Кольцевая, 65",
    "id": "p69"
  },
  "ул. Кольцевая, 67": {
    "color": "red",
    "m2": "18,63",
    "m3": "1 очередь, Тип: Премиум",
    "m4": "Продан",
    "m5": "http://www.poselok-bobry.ru/genplan/img/psheme_house_type2.png",
    "points": [
      995,
      325,
      993,
      304,
      1044,
      302,
      1049,
      324
    ],
    "street": "ул. Кольцевая, 67",
    "id": "p70"
  },
  "ул. Кольцевая, 69": {
    "color": "red",
    "m2": "32,45",
    "m3": "2 очередь, Тип: Премиум",
    "m4": "Продан",
    "m5": "http://www.poselok-bobry.ru/genplan/img/psheme_house_type3.png",
    "points": [
      977,
      367,
      998,
      349,
      996,
      332,
      1053,
      332,
      1056,
      354,
      1017,
      399
    ],
    "street": "ул. Кольцевая, 69",
    "id": "p71"
  },
  "ул. Кольцевая, 50": {
    "color": "red",
    "m2": "29,04",
    "m3": "2 очередь, Тип: Люкс",
    "m4": "Продан",
    "m5": "http://www.poselok-bobry.ru/genplan/img/psheme_house_type1.png",
    "points": [
      925,
      370,
      924,
      330,
      976,
      333,
      978,
      340,
      942,
      370
    ],
    "street": "ул. Кольцевая, 50",
    "id": "p72"
  },
  "ул. Кольцевая, 71": {
    "color": "red",
    "m2": "20,16",
    "m3": "2 очередь, Тип: Премиум",
    "m4": "Продан",
    "m5": "http://www.poselok-bobry.ru/genplan/img/psheme_house_type5.png",
    "points": [
      954,
      385,
      973,
      370,
      1013,
      402,
      992,
      426
    ],
    "street": "ул. Кольцевая, 71",
    "id": "p73"
  },
  "ул. Кольцевая, 73": {
    "color": "red",
    "m2": "35,38",
    "m3": "2 очередь, Тип: Премиум",
    "m4": "Продан",
    "m5": "http://www.poselok-bobry.ru/genplan/img/psheme_house_type4.png",
    "points": [
      939,
      438,
      934,
      388,
      949,
      387,
      988,
      427,
      976,
      442
    ],
    "street": "ул. Кольцевая, 73",
    "id": "p74"
  },
  "ул. Кольцевая, 75": {
    "color": "red",
    "m2": "28,05",
    "m3": "2 очередь, Тип: Премиум",
    "m4": "Продан",
    "m5": "http://www.poselok-bobry.ru/genplan/img/psheme_house_type2.png",
    "points": [
      892,
      435,
      891,
      384,
      930,
      386,
      933,
      436
    ],
    "street": "ул. Кольцевая, 75",
    "id": "p75"
  },
  "ул. Кольцевая, 52": {
    "color": "red",
    "m2": "16,22",
    "m3": "2 очередь, Тип: Люкс",
    "m4": "Продан",
    "m5": "http://www.poselok-bobry.ru/genplan/img/psheme_house_type5.png",
    "points": [
      881,
      366,
      880,
      325,
      920,
      328,
      921,
      369
    ],
    "street": "ул. Кольцевая, 52",
    "id": "p76"
  },
  "ул. Кольцевая, 77": {
    "color": "red",
    "m2": "25,91",
    "m3": "2 очередь, Тип: Премиум",
    "m4": "Продан",
    "m5": "http://www.poselok-bobry.ru/genplan/img/psheme_house_type7.png",
    "points": [
      850,
      430,
      852,
      381,
      887,
      383,
      888,
      434
    ],
    "street": "ул. Кольцевая, 77",
    "id": "p77"
  },
  "ул. Кольцевая, 54": {
    "color": "red",
    "m2": "16,22",
    "m3": "2 очередь, Тип: Люкс",
    "m4": "Продан",
    "m5": "http://www.poselok-bobry.ru/genplan/img/psheme_house_type1.png",
    "points": [
      834,
      362,
      836,
      322,
      877,
      326,
      877,
      365
    ],
    "street": "ул. Кольцевая, 54",
    "id": "p78"
  },
  "ул. Кольцевая, 79": {
    "color": "red",
    "m2": "25,93",
    "m3": "2 очередь, Тип: Премиум",
    "m4": "Продан",
    "m5": "http://www.poselok-bobry.ru/genplan/img/psheme_house_type4.png",
    "points": [
      807,
      427,
      809,
      376,
      849,
      379,
      846,
      427
    ],
    "street": "ул. Кольцевая, 79",
    "id": "p79"
  },
  "ул. Кольцевая, 56": {
    "color": "red",
    "m2": "16,22",
    "m3": "2 очередь, Тип: Люкс",
    "m4": "Продан",
    "m5": "http://www.poselok-bobry.ru/genplan/img/psheme_house_type3.png",
    "points": [
      789,
      360,
      792,
      317,
      834,
      322,
      832,
      362
    ],
    "street": "ул. Кольцевая, 56",
    "id": "p80"
  },
  "ул. Кольцевая, 81": {
    "color": "red",
    "m2": "24,74",
    "m3": "2 очередь, Тип: Премиум",
    "m4": "Продан",
    "m5": "http://www.poselok-bobry.ru/genplan/img/psheme_house_type1.png",
    "points": [
      758,
      390,
      762,
      373,
      806,
      375,
      803,
      426,
      788,
      425
    ],
    "street": "ул. Кольцевая, 81",
    "id": "p81"
  },
  "ул. Кольцевая, 58": {
    "color": "red",
    "m2": "16,26",
    "m3": "2 очередь, Тип: Люкс",
    "m4": "Продан",
    "m5": "http://www.poselok-bobry.ru/genplan/img/psheme_house_type2.png",
    "points": [
      745,
      355,
      748,
      316,
      788,
      317,
      786,
      358
    ],
    "street": "ул. Кольцевая, 58",
    "id": "p82"
  },
  "ул. Кольцевая, 60": {
    "color": "red",
    "m2": "27,55",
    "m3": "3 очередь, Тип: Люкс",
    "m4": "Продан",
    "m5": "http://www.poselok-bobry.ru/genplan/img/psheme_house_type7.png",
    "points": [
      690,
      313,
      696,
      309,
      744,
      314,
      741,
      355,
      727,
      355
    ],
    "street": "ул. Кольцевая, 60",
    "id": "p83"
  },
  "ул. Кольцевая, 62": {
    "color": "red",
    "m2": "26,00",
    "m3": "2 очередь, Тип: Комфорт",
    "m4": "Продан",
    "m5": "http://www.poselok-bobry.ru/genplan/img/psheme_house_type1.png",
    "points": [
      650,
      362,
      661,
      326,
      668,
      323,
      704,
      366,
      702,
      373
    ],
    "street": "ул. Кольцевая, 62",
    "id": "p84"
  },
  "ул. Кольцевая, 64": {
    "color": "red",
    "m2": "15,00",
    "m3": "2 очередь, Тип: Комфорт",
    "m4": "Продан",
    "m5": "http://www.poselok-bobry.ru/genplan/img/psheme_house_type2.png",
    "points": [
      641,
      392,
      649,
      366,
      701,
      376,
      691,
      402
    ],
    "street": "ул. Кольцевая, 64",
    "id": "p85"
  },
  "ул. Кольцевая, 83": {
    "color": "red",
    "m2": "25,96",
    "m3": "2 очередь, Тип: Премиум",
    "m4": "Продан",
    "m5": "http://www.poselok-bobry.ru/genplan/img/psheme_house_type3.png",
    "points": [
      704,
      432,
      715,
      398,
      737,
      399,
      769,
      438,
      766,
      448
    ],
    "street": "ул. Кольцевая, 83",
    "id": "p86"
  },
  "ул. Кольцевая, 66": {
    "color": "red",
    "m2": "15,00",
    "m3": "2 очередь, Тип: Комфорт",
    "m4": "Продан",
    "m5": "http://www.poselok-bobry.ru/genplan/img/psheme_house_type4.png",
    "points": [
      630,
      422,
      639,
      395,
      691,
      406,
      683,
      434
    ],
    "street": "ул. Кольцевая, 66",
    "id": "p87"
  },
  "ул. Кольцевая, 85": {
    "color": "red",
    "m2": "24,84",
    "m3": "2 очередь, Тип: Премиум",
    "m4": "Продан",
    "m5": "http://www.poselok-bobry.ru/genplan/img/psheme_house_type5.png",
    "points": [
      696,
      465,
      703,
      437,
      765,
      450,
      758,
      477
    ],
    "street": "ул. Кольцевая, 85",
    "id": "p88"
  },
  "ул. Кольцевая, 68": {
    "color": "red",
    "m2": "15,25",
    "m3": "2 очередь, Тип: Комфорт",
    "m4": "Продан",
    "m5": "http://www.poselok-bobry.ru/genplan/img/psheme_house_type6.png",
    "points": [
      619,
      451,
      628,
      427,
      680,
      438,
      674,
      466
    ],
    "street": "ул. Кольцевая, 68",
    "id": "p89"
  },
  "ул. Кольцевая, 87": {
    "color": "red",
    "m2": "25,01",
    "m3": "1 очередь, Тип: Комфорт",
    "m4": "Продан",
    "m5": "http://www.poselok-bobry.ru/genplan/img/psheme_house_type7.png",
    "points": [
      683,
      503,
      691,
      472,
      756,
      484,
      747,
      518
    ],
    "street": "ул. Кольцевая, 87",
    "id": "p90"
  },
  "ул. Кольцевая, 70": {
    "color": "red",
    "m2": "15,00",
    "m3": "1 очередь, Тип: Люкс",
    "m4": "Продан",
    "m5": "http://www.poselok-bobry.ru/genplan/img/psheme_house_type1.png",
    "points": [
      606,
      486,
      616,
      459,
      668,
      473,
      662,
      501
    ],
    "street": "ул. Кольцевая, 70",
    "id": "p91"
  },
  "ул. Кольцевая, 89": {
    "color": "red",
    "m2": "25,19",
    "m3": "1 очередь, Тип: Премиум",
    "m4": "Продан",
    "m5": "http://www.poselok-bobry.ru/genplan/img/psheme_house_type4.png",
    "points": [
      674,
      539,
      682,
      507,
      744,
      522,
      736,
      554
    ],
    "street": "ул. Кольцевая, 89",
    "id": "p92"
  },
  "ул. Кольцевая, 72": {
    "color": "red",
    "m2": "15,25",
    "m3": "1 очередь, Тип: Люкс",
    "m4": "Продан",
    "m5": "http://www.poselok-bobry.ru/genplan/img/psheme_house_type2.png",
    "points": [
      596,
      520,
      606,
      492,
      659,
      505,
      651,
      534
    ],
    "street": "ул. Кольцевая, 72",
    "id": "p93"
  },
  "ул. Кольцевая, 74": {
    "color": "red",
    "m2": "15,50",
    "m3": "1 очередь, Тип: Комфорт",
    "m4": "Продан",
    "m5": "http://www.poselok-bobry.ru/genplan/img/psheme_house_type1.png",
    "points": [
      583,
      555,
      594,
      525,
      649,
      538,
      640,
      570
    ],
    "street": "ул. Кольцевая, 74",
    "id": "p94"
  },
  "ул. Кольцевая, 91": {
    "color": "red",
    "m2": "24,42",
    "m3": "1 очередь, Тип: Комфорт",
    "m4": "Продан",
    "m5": "http://www.poselok-bobry.ru/genplan/img/psheme_house_type5.png",
    "points": [
      662,
      574,
      670,
      545,
      734,
      558,
      726,
      590
    ],
    "street": "ул. Кольцевая, 91",
    "id": "p95"
  },
  "ул. Кольцевая, 93": {
    "color": "red",
    "m2": "19,80",
    "m3": "1 очередь, Тип: Комфорт",
    "m4": "Продан",
    "m5": "http://www.poselok-bobry.ru/genplan/img/psheme_house_type6.png",
    "points": [
      730,
      592,
      744,
      546,
      789,
      555,
      776,
      602
    ],
    "street": "ул. Кольцевая, 93",
    "id": "p96"
  },
  "ул. Кольцевая, 95": {
    "color": "red",
    "m2": "19,80",
    "m3": "1 очередь, Тип: Комфорт",
    "m4": "Продан",
    "m5": "http://www.poselok-bobry.ru/genplan/img/psheme_house_type7.png",
    "points": [
      781,
      604,
      794,
      557,
      843,
      569,
      832,
      617
    ],
    "street": "ул. Кольцевая, 95",
    "id": "p97"
  },
  "ул. Кольцевая, 97": {
    "color": "red",
    "m2": "28,74",
    "m3": "1 очередь, Тип: Комфорт",
    "m4": "Продан",
    "m5": "http://www.poselok-bobry.ru/genplan/img/psheme_house_type1.png",
    "points": [
      837,
      618,
      848,
      570,
      882,
      578,
      894,
      632,
      862,
      634,
      862,
      628
    ],
    "street": "ул. Кольцевая, 97",
    "id": "p98"
  },
  "ул. Кольцевая, 88": {
    "color": "red",
    "m2": "34,40",
    "m3": "1 очередь, Тип: Премиум",
    "m4": "Продан",
    "m5": "http://www.poselok-bobry.ru/genplan/img/psheme_house_type2.png",
    "points": [
      915,
      701,
      893,
      636,
      860,
      636,
      849,
      683
    ],
    "street": "ул. Кольцевая, 88",
    "id": "p99"
  },
  "ул. Кольцевая, 86": {
    "color": "red",
    "m2": "20,01",
    "m3": "1 очередь, Тип: Комфорт",
    "m4": "Продан",
    "m5": "http://www.poselok-bobry.ru/genplan/img/psheme_house_type3.png",
    "points": [
      793,
      670,
      804,
      629,
      852,
      641,
      843,
      686
    ],
    "street": "ул. Кольцевая, 86",
    "id": "p100"
  },
  "ул. Кольцевая, 84": {
    "color": "red",
    "m2": "20,01",
    "m3": "1 очередь, Тип: Комфорт",
    "m4": "Продан",
    "m5": "http://www.poselok-bobry.ru/genplan/img/psheme_house_type4.png",
    "points": [
      735,
      657,
      747,
      615,
      800,
      628,
      787,
      669
    ],
    "street": "ул. Кольцевая, 84",
    "id": "p101"
  },
  "ул. Кольцевая, 82": {
    "color": "red",
    "m2": "23,06 ",
    "m3": "1 очередь, Тип: Комфорт",
    "m4": "Продан",
    "m5": "http://www.poselok-bobry.ru/genplan/img/psheme_house_type5.png",
    "points": [
      680,
      654,
      696,
      604,
      742,
      616,
      731,
      657
    ],
    "street": "ул. Кольцевая, 82",
    "id": "p102"
  },
  "ул. Кольцевая, 80": {
    "color": "red",
    "m2": "26,97",
    "m3": "1 очередь, Тип: Комфорт",
    "m4": "Продан",
    "m5": "http://www.poselok-bobry.ru/genplan/img/psheme_house_type6.png",
    "points": [
      636,
      652,
      654,
      593,
      692,
      600,
      676,
      654
    ],
    "street": "ул. Кольцевая, 80",
    "id": "p103"
  },
  "ул. Кольцевая, 76": {
    "color": "red",
    "m2": "20,00",
    "m3": "1 очередь, Тип: Комфорт",
    "m4": "Продан",
    "m5": "http://www.poselok-bobry.ru/genplan/img/psheme_house_type7.png",
    "points": [
      564,
      604,
      575,
      572,
      634,
      586,
      625,
      617
    ],
    "street": "ул. Кольцевая, 76",
    "id": "p104"
  },
  "ул. Кольцевая, 78": {
    "color": "red",
    "m2": "17,50",
    "m3": "1 очередь, Тип: Комфорт",
    "m4": "Продан",
    "m5": "http://www.poselok-bobry.ru/genplan/img/psheme_house_type1.png",
    "points": [
      549,
      643,
      564,
      607,
      623,
      620,
      615,
      649
    ],
    "street": "ул. Кольцевая, 78",
    "id": "p105"
  },
  "ул. Главная Аллея, 2": {
    "color": "red",
    "m2": "17,15",
    "m3": "1 очередь, Тип: Комфорт",
    "m4": "Продан",
    "m5": "http://www.poselok-bobry.ru/genplan/img/psheme_house_type2.png",
    "points": [
      476,
      629,
      489,
      593,
      551,
      607,
      539,
      642
    ],
    "street": "ул. Главная Аллея, 2",
    "id": "p106"
  },
  "ул. Главная Аллея, 1": {
    "color": "red",
    "m2": "17,67",
    "m3": "1 очередь, Тип: Комфорт",
    "m4": "свободен",
    "m5": "http://www.poselok-bobry.ru/genplan/img/psheme_house_type3.png",
    "points": [
      377,
      639,
      389,
      613,
      451,
      623,
      441,
      652
    ],
    "street": "ул. Главная Аллея, 1",
    "id": "p107"
  },
  "ул. Главная Аллея, 3": {
    "color": "red",
    "m2": "16,55",
    "m3": "1 очередь, Тип: Комфорт",
    "m4": "Продан",
    "m5": "http://www.poselok-bobry.ru/genplan/img/psheme_house_type7.png",
    "points": [
      390,
      607,
      404,
      575,
      464,
      589,
      454,
      619
    ],
    "street": "ул. Главная Аллея, 3",
    "id": "p108"
  },
  "ул. Главная Аллея, 4": {
    "color": "red",
    "m2": "20,27",
    "m3": "1 очередь, Тип: Комфорт",
    "m4": "Продан",
    "m5": "http://www.poselok-bobry.ru/genplan/img/psheme_house_type1.png",
    "points": [
      490,
      589,
      502,
      554,
      564,
      569,
      553,
      602
    ],
    "street": "ул. Главная Аллея, 4",
    "id": "p109"
  },
  "ул. Главная Аллея, 5": {
    "color": "red",
    "m2": "19,31",
    "m3": "1 очередь, Тип: Комфорт",
    "m4": "Продан",
    "m5": "http://www.poselok-bobry.ru/genplan/img/psheme_house_type2.png",
    "points": [
      411,
      556,
      424,
      528,
      482,
      542,
      472,
      569
    ],
    "street": "ул. Главная Аллея, 5",
    "id": "p110"
  },
  "ул. Главная Аллея, 6": {
    "color": "red",
    "m2": "16,61",
    "m3": "1 очередь, Тип: Комфорт",
    "m4": "Продан",
    "m5": "http://www.poselok-bobry.ru/genplan/img/psheme_house_type3.png",
    "points": [
      509,
      536,
      522,
      507,
      584,
      521,
      573,
      553
    ],
    "street": "ул. Главная Аллея, 6",
    "id": "p111"
  },
  "ул. Главная Аллея, 7": {
    "color": "red",
    "m2": "17,43",
    "m3": "1 очередь, Тип: Комфорт",
    "m4": "Продан",
    "m5": "http://www.poselok-bobry.ru/genplan/img/psheme_house_type4.png",
    "points": [
      426,
      524,
      440,
      489,
      498,
      503,
      484,
      538
    ],
    "street": "ул. Главная Аллея, 7",
    "id": "p112"
  },
  "ул. Главная Аллея, 8": {
    "color": "red",
    "m2": "17,40",
    "m3": "1 очередь, Тип: Комфорт",
    "m4": "Продан",
    "m5": "http://www.poselok-bobry.ru/genplan/img/psheme_house_type5.png",
    "points": [
      522,
      502,
      535,
      472,
      596,
      485,
      585,
      518
    ],
    "street": "ул. Главная Аллея, 8",
    "id": "p113"
  },
  "ул. Главная Аллея, 9": {
    "color": "red",
    "m2": "17,39",
    "m3": "1 очередь, Тип: Комфорт",
    "m4": "Продан",
    "m5": "http://www.poselok-bobry.ru/genplan/img/psheme_house_type6.png",
    "points": [
      441,
      487,
      456,
      454,
      512,
      467,
      499,
      500
    ],
    "street": "ул. Главная Аллея, 9",
    "id": "p114"
  },
  "ул. Главная Аллея, 10": {
    "color": "red",
    "m2": "17,39",
    "m3": "1 очередь, Тип: Комфорт",
    "m4": "Продан",
    "m5": "http://www.poselok-bobry.ru/genplan/img/psheme_house_type7.png",
    "points": [
      536,
      467,
      548,
      438,
      608,
      450,
      597,
      481
    ],
    "street": "ул. Главная Аллея, 10",
    "id": "p115"
  },
  "ул. Главная Аллея, 11": {
    "color": "red",
    "m2": "17,18",
    "m3": "2 очередь, Тип: Комфорт",
    "m4": "Продан",
    "m5": "http://www.poselok-bobry.ru/genplan/img/psheme_house_type1.png",
    "points": [
      459,
      447,
      473,
      417,
      527,
      428,
      515,
      460
    ],
    "street": "ул. Главная Аллея, 11",
    "id": "p116"
  },
  "ул. Главная Аллея, 12": {
    "color": "red",
    "m2": "17,44",
    "m3": "2 очередь, Тип: Комфорт",
    "m4": "Продан",
    "m5": "http://www.poselok-bobry.ru/genplan/img/psheme_house_type6.png",
    "points": [
      551,
      430,
      559,
      404,
      620,
      417,
      610,
      444
    ],
    "street": "ул. Главная Аллея, 12",
    "id": "p117"
  },
  "ул. Главная Аллея, 13": {
    "color": "red",
    "m2": "17,14",
    "m3": "2 очередь, Тип: Комфорт",
    "m4": "Продан",
    "m5": "http://www.poselok-bobry.ru/genplan/img/psheme_house_type5.png",
    "points": [
      474,
      411,
      485,
      383,
      540,
      395,
      530,
      425
    ],
    "street": "ул. Главная Аллея, 13",
    "id": "p118"
  },
  "ул. Главная Аллея, 14": {
    "color": "red",
    "m2": "17,45",
    "m3": "2 очередь, Тип: Комфорт",
    "m4": "Продан",
    "m5": "http://www.poselok-bobry.ru/genplan/img/psheme_house_type4.png",
    "points": [
      563,
      399,
      573,
      372,
      630,
      383,
      622,
      412
    ],
    "street": "ул. Главная Аллея, 14",
    "id": "p119"
  },
  "ул. Главная Аллея, 15": {
    "color": "red",
    "m2": "17,12",
    "m3": "2 очередь, Тип: Комфорт",
    "m4": "Продан",
    "m5": "http://www.poselok-bobry.ru/genplan/img/psheme_house_type3.png",
    "points": [
      488,
      380,
      500,
      353,
      552,
      364,
      543,
      392
    ],
    "street": "ул. Главная Аллея, 15",
    "id": "p120"
  },
  "ул. Главная Аллея, 16": {
    "color": "red",
    "m2": "17,40",
    "m3": "2 очередь, Тип: Комфорт",
    "m4": "Продан",
    "m5": "http://www.poselok-bobry.ru/genplan/img/psheme_house_type2.png",
    "points": [
      575,
      368,
      586,
      340,
      642,
      352,
      633,
      380
    ],
    "street": "ул. Главная Аллея, 16",
    "id": "p121"
  },
  "ул. Главная Аллея, 17": {
    "color": "red",
    "m2": "17,16",
    "m3": "2 очередь, Тип: Комфорт",
    "m4": "Продан",
    "m5": "http://www.poselok-bobry.ru/genplan/img/psheme_house_type1.png",
    "points": [
      501,
      348,
      512,
      321,
      565,
      333,
      555,
      360
    ],
    "street": "ул. Главная Аллея, 17",
    "id": "p122"
  },
  "ул. Главная Аллея, 18": {
    "color": "red",
    "m2": "17,40",
    "m3": "2 очередь, Тип: Комфорт",
    "m4": "Продан",
    "m5": "http://www.poselok-bobry.ru/genplan/img/psheme_house_type4.png",
    "points": [
      589,
      335,
      598,
      311,
      653,
      321,
      644,
      348
    ],
    "street": "ул. Главная Аллея, 18",
    "id": "p123"
  },
  "ул. Главная Аллея, 19": {
    "color": "red",
    "m2": "17,20",
    "m3": "2 очередь, Тип: Комфорт",
    "m4": "Продан",
    "m5": "http://www.poselok-bobry.ru/genplan/img/psheme_house_type7.png",
    "points": [
      514,
      318,
      527,
      292,
      578,
      302,
      568,
      328
    ],
    "street": "ул. Главная Аллея, 19",
    "id": "p124"
  },
  "ул. Главная Аллея, 21": {
    "color": "red",
    "m2": "17,15",
    "m3": "2 очередь, Тип: Комфорт",
    "m4": "Продан",
    "m5": "http://www.poselok-bobry.ru/genplan/img/psheme_house_type6.png",
    "points": [
      527,
      288,
      538,
      263,
      589,
      274,
      580,
      299
    ],
    "street": "ул. Главная Аллея, 21",
    "id": "p125"
  },
  "ул. Главная Аллея, 20": {
    "color": "red",
    "m2": "13,67",
    "m3": "2 очередь, Тип: Комфорт",
    "m4": "Продан",
    "m5": "http://www.poselok-bobry.ru/genplan/img/psheme_house_type3.png",
    "points": [
      600,
      306,
      609,
      278,
      629,
      280,
      659,
      316,
      656,
      319
    ],
    "street": "ул. Главная Аллея, 20",
    "id": "p126"
  },
  "ул. Главная Аллея, 21/1": {
    "color": "yellow",
    "m2": "18,94",
    "m3": "1 очередь, Тип: Комфорт",
    "m4": "забронирован",
    "m5": "http://www.poselok-bobry.ru/genplan/img/psheme_house_type1.png",
    "points": [
      543,
      247,
      564,
      193,
      582,
      213,
      568,
      254
    ],
    "street": "ул. Главная Аллея, 21/1",
    "id": "p127",
    "class": "hobjc38",
    "show1": "0"
  },
  "ул. Главная Аллея, 23/1": {
    "color": "yellow",
    "m2": "18,94",
    "m3": "1 очередь, Тип: Комфорт",
    "m4": "забронирован",
    "m5": "http://www.poselok-bobry.ru/genplan/img/psheme_house_type2.png",
    "points": [
      585,
      210,
      567,
      190,
      640,
      196,
      638,
      215
    ],
    "street": "ул. Главная Аллея, 23/1",
    "id": "p128",
    "class": "hobjc32",
    "show1": "0"
  },
  "ул. Главная Аллея, 23": {
    "color": "green",
    "m2": "17,07",
    "m3": "3 очередь, Тип: Комфорт",
    "m4": "свободен",
    "m5": "http://www.poselok-bobry.ru/genplan/img/psheme_house_type4.png",
    "points": [
      656,
      240,
      660,
      200,
      687,
      201,
      682,
      241
    ],
    "street": "ул. Главная Аллея, 23",
    "id": "p129",
    "class": "hobjc31",
    "show1": "0"
  },
  "ул. Главная Аллея, 22": {
    "color": "green",
    "m2": "17,88",
    "m3": "3 очередь, Тип: Комфорт",
    "m4": "свободен",
    "m5": "http://www.poselok-bobry.ru/genplan/img/psheme_house_type3.png",
    "points": [
      653,
      272,
      654,
      255,
      692,
      257,
      690,
      300,
      683,
      306
    ],
    "street": "ул. Главная Аллея, 22",
    "id": "p130"
  },
  "ул. Главная Аллея, 25": {
    "color": "green",
    "m2": "17,17",
    "m3": "3 очередь, Тип: Комфорт",
    "m4": "свободен",
    "m5": "http://www.poselok-bobry.ru/genplan/img/psheme_house_type7.png",
    "points": [
      686,
      240,
      691,
      201,
      721,
      203,
      718,
      243
    ],
    "street": "ул. Главная Аллея, 25",
    "id": "p131",
    "class": "hobjc29",
    "show1": "0"
  },
  "ул. Главная Аллея, 24": {
    "color": "red",
    "m2": "20,12",
    "m3": "3 очередь, Тип: Комфорт",
    "m4": "Продан",
    "m5": "http://www.poselok-bobry.ru/genplan/img/psheme_house_type1.png",
    "points": [
      694,
      301,
      697,
      259,
      730,
      261,
      730,
      303
    ],
    "street": "ул. Главная Аллея, 24",
    "id": "p132"
  },
  "ул. Главная Аллея, 27": {
    "color": "red",
    "m2": "17,17",
    "m3": "3 очередь, Тип: Комфорт",
    "m4": "продан",
    "m5": "http://www.poselok-bobry.ru/genplan/img/psheme_house_type2.png",
    "points": [
      723,
      243,
      725,
      205,
      756,
      206,
      754,
      246
    ],
    "street": "ул. Главная Аллея, 27",
    "id": "p133",
    "class": "hobjc27",
    "show1": "0"
  },
  "ул. Главная Аллея, 26": {
    "color": "red",
    "m2": "20,07",
    "m3": "3 очередь, Тип: Комфорт",
    "m4": "Продан",
    "m5": "http://www.poselok-bobry.ru/genplan/img/psheme_house_type3.png",
    "points": [
      734,
      303,
      735,
      262,
      771,
      264,
      772,
      307
    ],
    "street": "ул. Главная Аллея, 26",
    "id": "p134"
  },
  "ул. Главная Аллея, 29": {
    "color": "green",
    "m2": "17,17",
    "m3": "3 очередь, Тип: Комфорт",
    "m4": "готовый дом на продажу",
    "m5": "http://www.poselok-bobry.ru/genplan/img/psheme_house_type4.png",
    "points": [
      758,
      246,
      760,
      206,
      788,
      208,
      787,
      249
    ],
    "street": "ул. Главная Аллея, 29",
    "id": "p135",
    "class": "hobjc23",
    "show1": "1"
  },
  "ул. Главная Аллея, 28": {
    "color": "red",
    "m2": "19,63",
    "m3": "3 очередь, Тип: Комфорт",
    "m4": "Продан",
    "m5": "http://www.poselok-bobry.ru/genplan/img/psheme_house_type6.png",
    "points": [
      776,
      306,
      777,
      266,
      814,
      267,
      815,
      310
    ],
    "street": "ул. Главная Аллея, 28",
    "id": "p136"
  },
  "ул. Главная Аллея, 31": {
    "color": "red",
    "m2": "17,17",
    "m3": "3 очередь, Тип: Комфорт",
    "m4": "продан",
    "m5": "http://www.poselok-bobry.ru/genplan/img/psheme_house_type1.png",
    "points": [
      792,
      250,
      792,
      208,
      820,
      208,
      822,
      251
    ],
    "street": "ул. Главная Аллея, 31",
    "id": "p137",
    "class": "hobjc22",
    "show1": "0"
  },
  "ул. Главная Аллея, 30": {
    "color": "red",
    "m2": "19,50",
    "m3": "3 очередь, Тип: Комфорт",
    "m4": "Продан",
    "m5": "http://www.poselok-bobry.ru/genplan/img/psheme_house_type3.png",
    "points": [
      820,
      310,
      819,
      268,
      853,
      270,
      855,
      313
    ],
    "street": "ул. Главная Аллея, 30",
    "id": "p138"
  },
  "ул. Главная Аллея, 33": {
    "color": "red",
    "c": "hobjc19",
    "v": "show",
    "m2": "17,17",
    "m3": "3 очередь, Тип: Комфорт",
    "m4": "продан",
    "m5": "http://www.poselok-bobry.ru/genplan/img/psheme_house_type11.jpg",
    "points": [
      827,
      250,
      825,
      210,
      855,
      212,
      858,
      254
    ],
    "street": "ул. Главная Аллея, 33",
    "id": "p139",
    "class": "hobjc19",
    "show1": "1"
  },
  "ул. Главная Аллея, 32": {
    "color": "red",
    "m2": "19,50",
    "m3": "3 очередь, Тип: Комфорт",
    "m4": "Продан",
    "m5": "http://www.poselok-bobry.ru/genplan/img/psheme_house_type4.png",
    "points": [
      859,
      314,
      857,
      270,
      892,
      273,
      894,
      316
    ],
    "street": "ул. Главная Аллея, 32",
    "id": "p140"
  },
  "ул. Главная Аллея, 35": {
    "color": "red",
    "c": "hobjc18",
    "v": "show",
    "m2": "17,17",
    "m3": "3 очередь, Тип: Комфорт",
    "m4": "продан",
    "m5": "http://www.poselok-bobry.ru/genplan/img/psheme_house_type11.jpg",
    "points": [
      861,
      255,
      858,
      212,
      889,
      213,
      893,
      256
    ],
    "street": "ул. Главная Аллея, 35",
    "id": "p141",
    "class": "hobjc18",
    "show1": "1"
  },
  "ул. Главная Аллея, 34": {
    "color": "red",
    "m2": "19,50",
    "m3": "3 очередь, Тип: Комфорт",
    "m4": "свободен",
    "m5": "http://www.poselok-bobry.ru/genplan/img/psheme_house_type7.png",
    "points": [
      898,
      316,
      897,
      274,
      932,
      276,
      935,
      319
    ],
    "street": "ул. Главная Аллея, 34",
    "id": "p142"
  },
  "ул. Главная Аллея, 35/1": {
    "color": "red",
    "c": "hobjc17",
    "v": "show",
    "m2": "17,17",
    "m3": "3 очередь, Тип: Комфорт",
    "m4": "продан",
    "m5": "http://www.poselok-bobry.ru/genplan/img/psheme_house_type11.jpg",
    "points": [
      896,
      256,
      894,
      215,
      921,
      216,
      927,
      259
    ],
    "street": "ул. Главная Аллея, 35/1",
    "id": "p143",
    "class": "hobjc17",
    "show1": "1"
  },
  "ул. Главная Аллея, 37": {
    "color": "red",
    "m2": "17,17",
    "m3": "3 очередь, Тип: Люкс",
    "m4": "Продан",
    "m5": "http://www.poselok-bobry.ru/genplan/img/psheme_house_type3.png",
    "points": [
      929,
      260,
      922,
      216,
      940,
      216,
      961,
      263
    ],
    "street": "ул. Главная Аллея, 37",
    "id": "p144"
  }
}
